vcd2csv/example.vcd
$date
2019-11-21T22:30+0000
$end
$version
0.2
$end
$comment

$end
$timescale 1ns  $end
$scope module GCD $end
 $var wire 16 ! io_out $end
 $var wire 16 " _GEN_2 $end
 $var wire 16 # io_b $end
 $var wire 16 $ _GEN_1 $end
 $var wire 16 % y $end
 $var wire 1 & clock $end
 $var wire 16 ' x $end
 $var wire 1 ( io_load $end
 $var wire 1 ) io_valid $end
 $var wire 16 * _GEN_0 $end
 $var wire 16 + io_a $end
 $var wire 1 , reset $end
$upscope $end
$enddefinitions $end
$dumpvars
b0000000000000000 '
b0000000000000000 $
0(
b0000000000000000 +
0&
0)
b0000000000000000 %
b0000000000000000 !
b0000000000000000 "
0,
b0000000000000000 #
b0000000000000000 *
$end
#0
1)
1,
#1
1&
#6
0&
#11
1&
#16
0&
#21
1&
#26
0&
#31
1&
#36
0&
#41
1&
#46
0,
b0000000000110000 +
b0000000000100000 #
1(
0&
#51
b0000000000100000 %
b0000000000100000 "
b0000000000110000 !
b0000000000100000 *
b0000000000010000 $
0)
1&
b0000000000110000 '
#56
0&
0(
#61
b0000000000010000 '
1&
b0000000000010000 "
b0000000000010000 *
b0000000000010000 !
#66
0&
#71
b0000000000000000 "
b0000000000000000 *
b0000000000010000 %
1&
#76
0&
#81
1)
1&
b0000000000000000 %
#86
0&
#91
1&
#96
b0000000000000111 +
b0000000000000011 #
1(
0&
#101
b0000000000000111 '
b0000000000000100 $
b0000000000000011 %
b0000000000000011 *
0)
1&
b0000000000000011 "
b0000000000000111 !
#106
0&
0(
#111
b0000000000000100 !
b0000000000000001 $
1&
b0000000000000100 '
#116
0&
#121
b0000000000000001 '
b0000000000000010 "
b0000000000000010 *
b0000000000000001 !
1&
#126
0&
#131
b0000000000000001 "
1&
b0000000000000001 *
b0000000000000010 %
#136
0&
#141
b0000000000000000 "
b0000000000000000 *
b0000000000000001 %
1&
#146
0&
#151
1)
1&
b0000000000000000 %
#156
0&
#161
1&
#166
b0000000000001010 #
1(
0&
b0000000001100100 +
#171
b0000000001100100 !
b0000000000001010 %
0)
1&
b0000000001100100 '
b0000000000001010 *
b0000000001011010 $
b0000000000001010 "
#176
0&
0(
#181
b0000000001011010 '
b0000000001010000 $
b0000000001011010 !
1&
#186
0&
#191
b0000000001010000 !
b0000000001010000 '
b0000000001000110 $
1&
#196
0&
#201
b0000000001000110 '
b0000000001000110 !
b0000000000111100 $
1&
#206
0&
#211
b0000000000111100 '
1&
b0000000000110010 $
b0000000000111100 !
#216
0&
#221
b0000000000110010 '
b0000000000101000 $
b0000000000110010 !
1&
#226
0&
#231
b0000000000011110 $
b0000000000101000 '
1&
b0000000000101000 !
#236
0&
#241
b0000000000011110 !
b0000000000011110 '
1&
b0000000000010100 $
#246
0&
#251
b0000000000010100 !
b0000000000001010 $
b0000000000010100 '
1&
#256
0&
#261
b0000000000001010 '
b0000000000000000 "
b0000000000000000 *
1&
b0000000000001010 !
#266
0&
#271
1)
1&
b0000000000000000 %
