vcd2csv/vcd_dump.vcd
$date
   Thu Feb 27 00:57:14 2025
$end
$version
  2016.4
$end
$timescale
  1ps
$end
$scope module exdes_tb $end
$var reg 1 9 clk $end
$var reg 1 : sys_rst $end
$var integer 32 ; heartbeat_cnt $end
$var reg 120 < test_phase [119:0] $end
$var wire 1 $ done $end
$var wire 1 % locked $end
$var wire 1 ! clk_p $end
$var wire 1 " clk_n $end
$var parameter 32 = ONE_NS [31:0] $end
$var parameter 0 > PER $end
$var parameter 0 ? LP_TIMEOUT $end
$scope module exdes_top $end
$var wire 1 ! clk_p $end
$var wire 1 " clk_n $end
$var wire 1 # sys_rst $end
$var wire 1 $ done $end
$var wire 1 % locked $end
$var reg 2 & done_r [1:0] $end
$var wire 1 ' aclk $end
$var wire 1 ( locked_i $end
$var wire 1 ) aresetn $end
$var wire 1 * s_axis_tready $end
$var wire 1 + s_axis_tvalid $end
$var wire 1 , s_axis_tlast $end
$var wire 1 - m_axis_tvalid $end
$var wire 1 . m_axis_tlast $end
$var wire 1 / m_axis_tready $end
$var wire 1 0 m_axis_tkeep [0:0] $end
$var wire 1 1 example_slave_idle [0:0] $end
$var wire 8 2 m_axis_tdata [7:0] $end
$var wire 32 3 axis_data_count [31:0] $end
$var wire 1 4 s_axis_tkeep [0:0] $end
$var wire 32 5 axis_rd_data_count [31:0] $end
$var wire 1 6 example_master_done [0:0] $end
$var wire 8 7 s_axis_tdata [7:0] $end
$var wire 32 8 axis_wr_data_count [31:0] $end
$upscope $end
$upscope $end
$enddefinitions $end
#0
$dumpvars
1!
0"
0#
0$
x%
b0 &
1'
x(
1)
0*
0+
0,
0-
0.
x/
00
01
b0 2
b0 3
14
b0 5
06
b0 7
b0 8
19
0:
b0 ;
b110111001101111011101000101111101110011011101000110000101110010011101000110010101100100 <
b1 =
b101 >
b1100100 ?
$end
#100
0%
0(
#2000
0!
1"
09
#4000
1!
0"
0'
19
#6000
0!
1"
09
#8000
1!
0"
b0 &
1'
1)
19
#10000
0!
1"
09
#12000
1!
0"
0'
19
#14000
0!
1"
09
#16000
1!
0"
19
#18000
0!
1"
09
#20000
1!
0"
19
#22000
0!
1"
09
#24000
1!
0"
19
#26000
0!
1"
09
#28000
1!
0"
19
#30000
0!
1"
09
#32000
1!
0"
19
#34000
0!
1"
09
#36000
1!
0"
19
#38000
0!
1"
09
#40000
1!
0"
19
#42000
0!
1"
09
#44000
1!
0"
19
#46000
0!
1"
09
#48000
1!
0"
19
#50000
0!
1"
09
#52000
1!
0"
19
#54000
0!
1"
09
#56000
1!
0"
19
#58000
0!
1"
09
#60000
1!
0"
19
#62000
0!
1"
09
#64000
1!
0"
19
#66000
0!
1"
09
#68000
1!
0"
19
#70000
0!
1"
09
#72000
1!
0"
19
#74000
0!
1"
09
#76000
1!
0"
19
#78000
0!
1"
09
#80000
1!
0"
19
#82000
0!
1"
09
#84000
1!
0"
19
#86000
0!
1"
09
#88000
1!
0"
19
#90000
0!
1"
09
#92000
1!
0"
19
#94000
0!
1"
09
#96000
1!
0"
19
#98000
0!
1"
09
#100000
1!
0"
19
#102000
0!
1"
09
#104000
1!
0"
19
#106000
0!
1"
09
#108000
1!
0"
19
#110000
0!
1"
09
#112000
1!
0"
19
#114000
0!
1"
09
#116000
1!
0"
19
#118000
0!
1"
09
#120000
1!
0"
19
#122000
0!
1"
09
#124000
1!
0"
19
#126000
0!
1"
09
#128000
1!
0"
19
#130000
0!
1"
09
#132000
1!
0"
19
#134000
0!
1"
09
#136000
1!
0"
19
#138000
0!
1"
09
#140000
1!
0"
19
#142000
0!
1"
09
#144000
1!
0"
19
#146000
0!
1"
09
#148000
1!
0"
19
#150000
0!
1"
09
#152000
1!
0"
19
#154000
0!
1"
09
#156000
1!
0"
19
#158000
0!
1"
09
#160000
1!
0"
19
#162000
0!
1"
09
#164000
1!
0"
19
#166000
0!
1"
09
#168000
1!
0"
19
#170000
0!
1"
09
#172000
1!
0"
19
#174000
0!
1"
09
#176000
1!
0"
19
#178000
0!
1"
09
#180000
1!
0"
19
#182000
0!
1"
09
#184000
1!
0"
19
#186000
0!
1"
09
#188000
1!
0"
19
#190000
0!
1"
09
#192000
1!
0"
19
#194000
0!
1"
09
#196000
1!
0"
19
#198000
0!
1"
09
#200000
1!
0"
19
#202000
0!
1"
09
#204000
1!
0"
19
#206000
0!
1"
09
#208000
1!
0"
19
#210000
0!
1"
09
#212000
1!
0"
19
#214000
0!
1"
09
#216000
1!
0"
19
#218000
0!
1"
09
#220000
1!
0"
19
#222000
0!
1"
09
#224000
1!
0"
19
#226000
0!
1"
09
#228000
1!
0"
19
#230000
0!
1"
09
#232000
1!
0"
19
#234000
0!
1"
09
#236000
1!
0"
19
#238000
0!
1"
09
#240000
1!
0"
19
#242000
0!
1"
09
#244000
1!
0"
19
#246000
0!
1"
09
#248000
1!
0"
19
#250000
0!
1"
09
#252000
1!
0"
19
#254000
0!
1"
09
#256000
1!
0"
19
#258000
0!
1"
09
#260000
1!
0"
19
#262000
0!
1"
09
#264000
1!
0"
19
#266000
0!
1"
09
#268000
1!
0"
19
#270000
0!
1"
09
#272000
1!
0"
19
#274000
0!
1"
09
#276000
1!
0"
19
#278000
0!
1"
09
#280000
1!
0"
19
#282000
0!
1"
09
#284000
1!
0"
19
#286000
0!
1"
09
#288000
1!
0"
19
#290000
0!
1"
09
#292000
1!
0"
19
#294000
0!
1"
09
#296000
1!
0"
19
#298000
0!
1"
09
#300000
1!
0"
19
#302000
0!
1"
09
#304000
1!
0"
19
#306000
0!
1"
09
#308000
1!
0"
19
#310000
0!
1"
09
#312000
1!
0"
19
#314000
0!
1"
09
#316000
1!
0"
19
#318000
0!
1"
09
#320000
1!
0"
19
#322000
0!
1"
09
#324000
1!
0"
19
#326000
0!
1"
09
#328000
1!
0"
19
#330000
0!
1"
09
#332000
1!
0"
19
#334000
0!
1"
09
#336000
1!
0"
19
#338000
0!
1"
09
#340000
1!
0"
19
#342000
0!
1"
09
#344000
1!
0"
19
#346000
0!
1"
09
#348000
1!
0"
19
#350000
0!
1"
09
#352000
1!
0"
19
#354000
0!
1"
09
#356000
1!
0"
19
#358000
0!
1"
09
#360000
1!
0"
19
#362000
0!
1"
09
#364000
1!
0"
19
#366000
0!
1"
09
#368000
1!
0"
19
#370000
0!
1"
09
#372000
1!
0"
19
#374000
0!
1"
09
#376000
1!
0"
19
#378000
0!
1"
09
#380000
1!
0"
19
#382000
0!
1"
09
#384000
1!
0"
19
#386000
0!
1"
09
#388000
1!
0"
19
#390000
0!
1"
09
#392000
1!
0"
19
#394000
0!
1"
09
#396000
1!
0"
19
#398000
0!
1"
09
#400000
1!
0"
19
#402000
0!
1"
09
#404000
1!
0"
19
#406000
0!
1"
09
#408000
1!
0"
19
#410000
0!
1"
09
#412000
1!
0"
19
#414000
0!
1"
09
#416000
1!
0"
19
#418000
0!
1"
09
#420000
1!
0"
19
#422000
0!
1"
09
#424000
1!
0"
19
#426000
0!
1"
09
#428000
1!
0"
19
#430000
0!
1"
09
#432000
1!
0"
19
#434000
0!
1"
09
#436000
1!
0"
19
#438000
0!
1"
09
#440000
1!
0"
19
#442000
0!
1"
09
#444000
1!
0"
19
#446000
0!
1"
09
#448000
1!
0"
19
#450000
0!
1"
09
#452000
1!
0"
19
#454000
0!
1"
09
#456000
1!
0"
19
#458000
0!
1"
09
#460000
1!
0"
19
#462000
0!
1"
09
#464000
1!
0"
19
#466000
0!
1"
09
#468000
1!
0"
19
#470000
0!
1"
09
#472000
1!
0"
19
#474000
0!
1"
09
#476000
1!
0"
19
#478000
0!
1"
09
#480000
1!
0"
19
#482000
0!
1"
09
#484000
1!
0"
19
#486000
0!
1"
09
#488000
1!
0"
19
#490000
0!
1"
09
#492000
1!
0"
19
#494000
0!
1"
09
#496000
1!
0"
19
#498000
0!
1"
09
#500000
1!
0"
19
#502000
0!
1"
09
#504000
1!
0"
19
#506000
0!
1"
09
#508000
1!
0"
19
#510000
0!
1"
09
#512000
1!
0"
19
#514000
0!
1"
09
#516000
1!
0"
19
#518000
0!
1"
09
#520000
1!
0"
19
#522000
0!
1"
09
#524000
1!
0"
19
#526000
0!
1"
09
#528000
1!
0"
19
#530000
0!
1"
09
#532000
1!
0"
19
#534000
0!
1"
09
#536000
1!
0"
19
#538000
0!
1"
09
#540000
1!
0"
19
#542000
0!
1"
09
#544000
1!
0"
19
#546000
0!
1"
09
#548000
1!
0"
19
#550000
0!
1"
09
#552000
1!
0"
19
#554000
0!
1"
09
#556000
1!
0"
19
#558000
0!
1"
09
#560000
1!
0"
19
#562000
0!
1"
09
#564000
1!
0"
19
#566000
0!
1"
09
#568000
1!
0"
19
#570000
0!
1"
09
#572000
1!
0"
19
#574000
0!
1"
09
#576000
1!
0"
19
#578000
0!
1"
09
#580000
1!
0"
19
#582000
0!
1"
09
#584000
1!
0"
19
#586000
0!
1"
09
#588000
1!
0"
19
#590000
0!
1"
09
#592000
1!
0"
19
#594000
0!
1"
09
#596000
1!
0"
19
#598000
0!
1"
09
#600000
1!
0"
19
#602000
0!
1"
09
#604000
1!
0"
19
#606000
0!
1"
09
#608000
1!
0"
19
#610000
0!
1"
09
#612000
1!
0"
19
#614000
0!
1"
09
#616000
1!
0"
19
#618000
0!
1"
09
#620000
1!
0"
19
#622000
0!
1"
09
#624000
1!
0"
19
#626000
0!
1"
09
#628000
1!
0"
19
#630000
0!
1"
09
#632000
1!
0"
19
#634000
0!
1"
09
#636000
1!
0"
19
#638000
0!
1"
09
#640000
1!
0"
19
#642000
0!
1"
09
#644000
1!
0"
19
#646000
0!
1"
09
#648000
1!
0"
19
#650000
0!
1"
09
#652000
1!
0"
19
#654000
0!
1"
09
#656000
1!
0"
19
#658000
0!
1"
09
#660000
1!
0"
19
#662000
0!
1"
09
#664000
1!
0"
19
#666000
0!
1"
09
#668000
1!
0"
19
#670000
0!
1"
09
#672000
1!
0"
19
#674000
0!
1"
09
#676000
1!
0"
19
#678000
0!
1"
09
#680000
1!
0"
19
#682000
0!
1"
09
#684000
1!
0"
19
#686000
0!
1"
09
#688000
1!
0"
19
#690000
0!
1"
09
#692000
1!
0"
19
#694000
0!
1"
09
#696000
1!
0"
19
#698000
0!
1"
09
#700000
1!
0"
19
#702000
0!
1"
09
#704000
1!
0"
19
#706000
0!
1"
09
#708000
1!
0"
b0 &
1'
1)
19
#710000
0!
1"
09
#712000
1!
0"
19
#714000
0!
1"
09
#716000
1!
0"
19
#718000
0!
1"
09
#720000
1!
0"
19
#722000
0!
1"
09
#724000
1!
0"
19
#726000
0!
1"
09
#728000
1!
0"
19
#730000
0!
1"
09
#732000
1!
0"
19
#734000
0!
1"
09
#736000
1!
0"
19
#738000
0!
1"
09
#740000
1!
0"
19
#742000
0!
1"
09
#744000
1!
0"
19
#746000
0!
1"
09
#747999
0'
#748000
1!
0"
19
#750000
0!
1"
09
#752000
1!
0"
19
#754000
0!
1"
09
#756000
1!
0"
19
#758000
0!
1"
09
#760000
1!
0"
19
#762000
0!
1"
09
#764000
1!
0"
19
#766000
0!
1"
09
#768000
1!
0"
19
#770000
0!
1"
09
#772000
1!
0"
19
#774000
0!
1"
09
#776000
1!
0"
19
#778000
0!
1"
09
#780000
1!
0"
19
#782000
0!
1"
09
#784000
1!
0"
19
#786000
0!
1"
09
#787999
b0 &
1'
0)
#788000
1!
0"
19
#790000
0!
1"
09
#792000
1!
0"
19
#794000
0!
1"
09
#796000
1!
0"
19
#798000
0!
1"
09
#800000
1!
0"
19
#802000
0!
1"
09
#804000
1!
0"
19
#806000
0!
1"
09
#808000
1!
0"
19
#810000
0!
1"
09
#812000
1!
0"
19
#814000
0!
1"
09
#816000
1!
0"
19
#818000
0!
1"
09
#820000
1!
0"
19
#822000
0!
1"
09
#824000
1!
0"
19
#826000
0!
1"
09
#827999
0'
#828000
1!
0"
19
#830000
0!
1"
09
#832000
1!
0"
19
#834000
0!
1"
09
#836000
1!
0"
19
#838000
0!
1"
09
#840000
1!
0"
19
#842000
0!
1"
09
#844000
1!
0"
19
#846000
0!
1"
09
#848000
1!
0"
19
#850000
0!
1"
09
#852000
1!
0"
19
#854000
0!
1"
09
#856000
1!
0"
19
#858000
0!
1"
09
#860000
1!
0"
19
#862000
0!
1"
09
#864000
1!
0"
19
#866000
0!
1"
09
#868000
1!
0"
b0 &
1'
0)
0/
19
#870000
0!
1"
09
#872000
1!
0"
19
#874000
0!
1"
09
#876000
1!
0"
19
#878000
0!
1"
09
#880000
1!
0"
19
#882000
0!
1"
09
#884000
1!
0"
19
#886000
0!
1"
09
#888000
1!
0"
19
#890000
0!
1"
09
#892000
1!
0"
19
#894000
0!
1"
09
#896000
1!
0"
19
#898000
0!
1"
09
#900000
1!
0"
19
#902000
0!
1"
09
#904000
1!
0"
19
#906000
0!
1"
09
#907999
0'
#908000
1!
0"
19
#910000
0!
1"
09
#912000
1!
0"
19
#914000
0!
1"
09
#916000
1!
0"
19
#918000
0!
1"
09
#920000
1!
0"
19
#922000
0!
1"
09
#924000
1!
0"
19
#926000
0!
1"
09
#928000
1!
0"
19
#930000
0!
1"
09
#932000
1!
0"
19
#934000
0!
1"
09
#936000
1!
0"
19
#938000
0!
1"
09
#940000
1!
0"
19
#942000
0!
1"
09
#944000
1!
0"
19
#946000
0!
1"
09
#947999
b0 &
1'
0)
#948000
1!
0"
19
#950000
0!
1"
09
#952000
1!
0"
19
#954000
0!
1"
09
#956000
1!
0"
19
#958000
0!
1"
09
#960000
1!
0"
19
#962000
0!
1"
09
#964000
1!
0"
19
#966000
0!
1"
09
#968000
1!
0"
19
#970000
0!
1"
09
#972000
1!
0"
19
#974000
0!
1"
09
#976000
1!
0"
19
#978000
0!
1"
09
#980000
1!
0"
19
#982000
0!
1"
09
#984000
1!
0"
19
#986000
0!
1"
09
#987999
0'
#988000
1!
0"
19
#990000
0!
1"
09
#992000
1!
0"
19
#994000
0!
1"
09
#996000
1!
0"
19
#998000
0!
1"
09
#1000000
1!
0"
19
#1002000
0!
1"
09
#1004000
1!
0"
19
#1006000
0!
1"
09
#1008000
1!
0"
19
#1010000
0!
1"
09
#1012000
1!
0"
19
#1014000
0!
1"
09
#1016000
1!
0"
19
#1018000
0!
1"
09
#1020000
1!
0"
19
#1022000
0!
1"
09
#1024000
1!
0"
19
#1026000
0!
1"
09
#1028000
1!
0"
b0 &
1'
0)
19
#1030000
0!
1"
09
#1032000
1!
0"
19
#1034000
0!
1"
09
#1036000
1!
0"
19
#1038000
0!
1"
09
#1040000
1!
0"
19
#1042000
0!
1"
09
#1044000
1!
0"
19
#1046000
0!
1"
09
#1048000
1!
0"
19
#1050000
0!
1"
09
#1052000
1!
0"
19
#1054000
0!
1"
09
#1056000
1!
0"
19
#1058000
0!
1"
09
#1060000
1!
0"
19
#1062000
0!
1"
09
#1064000
1!
0"
19
#1066000
0!
1"
09
#1067999
0'
#1068000
1!
0"
19
#1070000
0!
1"
09
#1072000
1!
0"
19
#1074000
0!
1"
09
#1076000
1!
0"
19
#1078000
0!
1"
09
#1080000
1!
0"
19
#1082000
0!
1"
09
#1084000
1!
0"
19
#1086000
0!
1"
09
#1088000
1!
0"
19
#1090000
0!
1"
09
#1092000
1!
0"
19
#1094000
0!
1"
09
#1096000
1!
0"
19
#1098000
0!
1"
09
#1100000
1!
0"
19
#1102000
0!
1"
09
#1104000
1!
0"
19
#1106000
0!
1"
09
#1107999
b0 &
1'
0)
